^C:\USERS\GAMES\SOURCE\REPOS\CONSOLEAPPLICATION3\ZADANIE\POINTS.CPP|C:\USERS\GAMES\SOURCE\REPOS\CONSOLEAPPLICATION3\ZADANIE\SIMPLENUMBERS.CPP
C:\USERS\GAMES\SOURCE\REPOS\CONSOLEAPPLICATION3\ZADANIE\DEBUG\VC141.PDB
C:\USERS\GAMES\SOURCE\REPOS\CONSOLEAPPLICATION3\ZADANIE\DEBUG\VC141.IDB
C:\USERS\GAMES\SOURCE\REPOS\CONSOLEAPPLICATION3\ZADANIE\DEBUG\SIMPLENUMBERS.OBJ
C:\USERS\GAMES\SOURCE\REPOS\CONSOLEAPPLICATION3\ZADANIE\DEBUG\POINTS.OBJ
^C:\USERS\GAMES\SOURCE\REPOS\CONSOLEAPPLICATION3\ZADANIE\SIMPLENUMBERS.CPP
C:\USERS\GAMES\SOURCE\REPOS\CONSOLEAPPLICATION3\ZADANIE\DEBUG\VC141.PDB
^C:\USERS\GAMES\SOURCE\REPOS\CONSOLEAPPLICATION3\ZADANIE\POINTS.CPP
C:\USERS\GAMES\SOURCE\REPOS\CONSOLEAPPLICATION3\ZADANIE\DEBUG\VC141.PDB
C:\USERS\GAMES\SOURCE\REPOS\CONSOLEAPPLICATION3\ZADANIE\DEBUG\VC141.IDB
C:\USERS\GAMES\SOURCE\REPOS\CONSOLEAPPLICATION3\ZADANIE\DEBUG\POINTS.OBJ
